Variable Importance — var_imp • splendid
…
"svm"

"nnet"

    Author

    Derek Chiu

    Examples

data(hgsc)
class <- attr(hgsc, "class.true")
mod <- classification(hgsc, class, "xgboost")
var_imp(mod)
#> # A tibble: 91 × 2
#>    Variable Importance
#>    <chr>         <dbl>
#>  1 VCAN         0.119 
#>  2 CXCL10       0.109 
#>  3 COL5A1       0.0935
#>  4 HLA-DPA1     0.0766
#>  5 MARCKS       0.0720
#>  6 ITGB2        0.0433
#>  7 LCN2         0.0239
#>  8 STEAP3       0.0231
#>  9 STMN1        0.0220
#> 10 CLU          0.0209
#> # ℹ 81 more rows
…
